…
Create a dictionary using only positively-coded words or both positively
and negatively coded words.

``` r
## create dictionary using only positive words
only_pos <- dict(pos)

## create dictionary using both positive and negative words
d <- dict(list(pos = pos, neg = neg))

## view up to n entries of dictionary
print(d, n = 15)
#> # A dict[ionary]
#> # A tibble: 34 x 2
#>    word       weight
#>    <chr>       <dbl>
#>  1 like            1
#>  2 love            1
#>  3 amazing         1
#>  4 excellent       1
#>  5 great           1
#>  6 fantastic       1
#>  7 incredible      1
#>  8 awesome         1
#>  9 best            1
#> 10 favorite        1
#> 11 fan             1
#> 12 fun             1
#> 13 enjoyed         1
#> 14 good            1
#> 15 solid           1
#> # … with 19 more rows
```
…
